<svg xmlns="http://www.w3.org/2000/svg" width="21.422" height="14.281" viewBox="0 0 21.422 14.281">
  <path id="Icon_awesome-eye" data-name="Icon awesome-eye" d="M21.293,11.1A11.929,11.929,0,0,0,10.711,4.5,11.93,11.93,0,0,0,.129,11.1a1.2,1.2,0,0,0,0,1.086,11.929,11.929,0,0,0,10.582,6.6,11.93,11.93,0,0,0,10.582-6.6A1.2,1.2,0,0,0,21.293,11.1ZM10.711,17a5.356,5.356,0,1,1,5.356-5.356A5.356,5.356,0,0,1,10.711,17Zm0-8.926a3.545,3.545,0,0,0-.941.141A1.78,1.78,0,0,1,7.282,10.7,3.562,3.562,0,1,0,10.711,8.07Z" transform="translate(0 -4.5)" fill="#97a3b5"/>
</svg>
